{
  "swagger": "2.0",
  "info": { "version": "v1", "title": "Api" },
  "basePath": "/",
  "paths": {
    "/api/Account/login": {
      "post": {
        "tags": ["Account"],
        "summary": "User Login",
        "operationId": "ApiAccountLoginPost",
        "consumes": [
          "application/json-patch+json",
          "application/json",
          "text/json",
          "application/*+json"
        ],
        "produces": ["text/plain", "application/json", "text/json"],
        "parameters": [
          {
            "name": "model",
            "in": "body",
            "description": "The model.",
            "required": false,
            "schema": { "$ref": "#/definitions/Login" }
          }
        ],
        "responses": {
          "200": {
            "description": "Success",
            "schema": { "$ref": "#/definitions/ApiTokens" }
          },
          "400": {
            "description": "Bad Request",
            "schema": {
              "type": "object",
              "additionalProperties": {
                "$ref": "#/definitions/ModelStateEntry"
              }
            }
          }
        }
      }
    },
    "/api/Account/logout": {
      "post": {
        "tags": ["Account"],
        "summary": "Logout Current User",
        "operationId": "ApiAccountLogoutPost",
        "consumes": [
          "application/json-patch+json",
          "application/json",
          "text/json",
          "application/*+json"
        ],
        "produces": [],
        "parameters": [
          {
            "name": "refreshToken",
            "in": "body",
            "required": false,
            "schema": { "$ref": "#/definitions/ApiToken" }
          },
          {
            "name": "Authorization",
            "in": "header",
            "description":
              "JWT Authorization header using the Bearer scheme. Example: \"Authorization: Bearer {token}\"",
            "required": false,
            "type": "string"
          }
        ],
        "responses": {
          "204": { "description": "Success" },
          "401": { "description": "Unauthorized" }
        },
        "security": [{ "Bearer": [] }]
      }
    },
    "/api/Account/token/renew": {
      "post": {
        "tags": ["Account"],
        "summary": "Renew Token",
        "operationId": "ApiAccountTokenRenewPost",
        "consumes": [
          "application/json-patch+json",
          "application/json",
          "text/json",
          "application/*+json"
        ],
        "produces": ["text/plain", "application/json", "text/json"],
        "parameters": [
          {
            "name": "refreshToken",
            "in": "body",
            "required": false,
            "schema": { "$ref": "#/definitions/ApiToken" }
          }
        ],
        "responses": {
          "200": {
            "description": "Success",
            "schema": { "$ref": "#/definitions/ApiTokens" }
          }
        }
      }
    },
    "/api/Account/register": {
      "post": {
        "tags": ["Account"],
        "summary": "Registers the user.",
        "operationId": "ApiAccountRegisterPost",
        "consumes": [
          "application/json-patch+json",
          "application/json",
          "text/json",
          "application/*+json"
        ],
        "produces": ["text/plain", "application/json", "text/json"],
        "parameters": [
          {
            "name": "register",
            "in": "body",
            "description": "The register.",
            "required": false,
            "schema": { "$ref": "#/definitions/Register" }
          },
          {
            "name": "secret",
            "in": "header",
            "description": "",
            "required": false,
            "type": "string"
          }
        ],
        "responses": {
          "200": { "description": "Success" },
          "400": {
            "description": "Bad Request",
            "schema": {
              "type": "array",
              "items": { "$ref": "#/definitions/IdentityError" }
            }
          }
        }
      }
    },
    "/api/FileManagement/folder/{folderPath}": {
      "get": {
        "tags": ["FileManagement"],
        "summary": "Gets the folder.",
        "description":
          "Gets a list of all files and folders of the TopDirectory from the folder.",
        "operationId": "ApiFileManagementFolderByFolderPathGet",
        "consumes": [],
        "produces": ["text/plain", "application/json", "text/json"],
        "parameters": [
          {
            "name": "folderPath",
            "in": "path",
            "description": "The path.",
            "required": true,
            "type": "string"
          },
          {
            "name": "Authorization",
            "in": "header",
            "description":
              "JWT Authorization header using the Bearer scheme. Example: \"Authorization: Bearer {token}\"",
            "required": false,
            "type": "string"
          }
        ],
        "responses": {
          "200": {
            "description": "Success",
            "schema": {
              "type": "array",
              "items": { "$ref": "#/definitions/FileManagementItem" }
            }
          },
          "404": { "description": "Not Found" },
          "400": {
            "description": "Bad Request",
            "schema": { "type": "array", "items": { "type": "string" } }
          },
          "401": { "description": "Unauthorized" }
        },
        "security": [{ "Bearer": [] }]
      },
      "post": {
        "tags": ["FileManagement"],
        "summary": "Adds a new folder.",
        "description": "Creates a new folder.",
        "operationId": "ApiFileManagementFolderByFolderPathPost",
        "consumes": [],
        "produces": ["text/plain", "application/json", "text/json"],
        "parameters": [
          {
            "name": "folderPath",
            "in": "path",
            "description": "",
            "required": true,
            "type": "string"
          },
          {
            "name": "Authorization",
            "in": "header",
            "description":
              "JWT Authorization header using the Bearer scheme. Example: \"Authorization: Bearer {token}\"",
            "required": false,
            "type": "string"
          }
        ],
        "responses": {
          "204": { "description": "Success" },
          "400": {
            "description": "Bad Request",
            "schema": { "type": "array", "items": { "type": "string" } }
          },
          "401": { "description": "Unauthorized" }
        },
        "security": [{ "Bearer": [] }]
      },
      "delete": {
        "tags": ["FileManagement"],
        "summary": "Deletes the folder.",
        "operationId": "ApiFileManagementFolderByFolderPathDelete",
        "consumes": [],
        "produces": ["text/plain", "application/json", "text/json"],
        "parameters": [
          {
            "name": "folderPath",
            "in": "path",
            "description": "The folder path.",
            "required": true,
            "type": "string"
          },
          {
            "name": "Authorization",
            "in": "header",
            "description":
              "JWT Authorization header using the Bearer scheme. Example: \"Authorization: Bearer {token}\"",
            "required": false,
            "type": "string"
          }
        ],
        "responses": {
          "204": { "description": "Success" },
          "400": {
            "description": "Bad Request",
            "schema": { "type": "array", "items": { "type": "string" } }
          },
          "401": { "description": "Unauthorized" }
        },
        "security": [{ "Bearer": [] }]
      }
    },
    "/api/FileManagement/file/{filePath}": {
      "get": {
        "tags": ["FileManagement"],
        "summary": "Gets the file.",
        "description": "The download of the file",
        "operationId": "ApiFileManagementFileByFilePathGet",
        "consumes": [],
        "produces": ["text/plain", "application/json", "text/json"],
        "parameters": [
          {
            "name": "filePath",
            "in": "path",
            "description": "The filepath.",
            "required": true,
            "type": "string"
          },
          {
            "name": "Authorization",
            "in": "header",
            "description":
              "JWT Authorization header using the Bearer scheme. Example: \"Authorization: Bearer {token}\"",
            "required": false,
            "type": "string"
          }
        ],
        "responses": {
          "200": { "description": "Success" },
          "404": { "description": "Not Found" },
          "400": {
            "description": "Bad Request",
            "schema": { "type": "array", "items": { "type": "string" } }
          },
          "401": { "description": "Unauthorized" }
        },
        "security": [{ "Bearer": [] }]
      },
      "post": {
        "tags": ["FileManagement"],
        "summary": "Uploads a file.",
        "description": "Let you upload a file",
        "operationId": "ApiFileManagementFileByFilePathPost",
        "consumes": ["application/form-data"],
        "produces": ["text/plain", "application/json", "text/json"],
        "parameters": [
          {
            "name": "Authorization",
            "in": "header",
            "description":
              "JWT Authorization header using the Bearer scheme. Example: \"Authorization: Bearer {token}\"",
            "required": false,
            "type": "string"
          },
          {
            "name": "file",
            "in": "formData",
            "required": false,
            "type": "file"
          },
          {
            "name": "filePath",
            "in": "path",
            "description": "The file path.",
            "required": true,
            "type": "string"
          }
        ],
        "responses": {
          "204": { "description": "Success" },
          "400": {
            "description": "Bad Request",
            "schema": { "type": "array", "items": { "type": "string" } }
          },
          "401": { "description": "Unauthorized" }
        },
        "security": [{ "Bearer": [] }]
      },
      "delete": {
        "tags": ["FileManagement"],
        "summary": "Deletes the file.",
        "operationId": "ApiFileManagementFileByFilePathDelete",
        "consumes": [],
        "produces": ["text/plain", "application/json", "text/json"],
        "parameters": [
          {
            "name": "filePath",
            "in": "path",
            "description": "The file path.",
            "required": true,
            "type": "string"
          },
          {
            "name": "Authorization",
            "in": "header",
            "description":
              "JWT Authorization header using the Bearer scheme. Example: \"Authorization: Bearer {token}\"",
            "required": false,
            "type": "string"
          }
        ],
        "responses": {
          "204": { "description": "Success" },
          "400": {
            "description": "Bad Request",
            "schema": { "type": "array", "items": { "type": "string" } }
          },
          "401": { "description": "Unauthorized" }
        },
        "security": [{ "Bearer": [] }]
      }
    },
    "/api/Rapla/fullcalendar": {
      "get": {
        "tags": ["Rapla"],
        "summary": "Api-Route for FullCalendar.",
        "operationId": "ApiRaplaFullcalendarGet",
        "consumes": [],
        "produces": ["application/json"],
        "parameters": [
          {
            "name": "Start",
            "in": "query",
            "description": "Gets or sets the start.",
            "required": false,
            "type": "string",
            "format": "date-time"
          },
          {
            "name": "End",
            "in": "query",
            "description": "Gets or sets the end.",
            "required": false,
            "type": "string",
            "format": "date-time"
          },
          {
            "name": "Authorization",
            "in": "header",
            "description":
              "JWT Authorization header using the Bearer scheme. Example: \"Authorization: Bearer {token}\"",
            "required": false,
            "type": "string"
          }
        ],
        "responses": {
          "200": {
            "description": "Success",
            "schema": {
              "type": "array",
              "items": { "$ref": "#/definitions/Event" }
            }
          },
          "400": {
            "description": "Bad Request",
            "schema": {
              "type": "object",
              "additionalProperties": {
                "$ref": "#/definitions/ModelStateEntry"
              }
            }
          },
          "401": { "description": "Unauthorized" }
        },
        "security": [{ "Bearer": [] }]
      }
    }
  },
  "definitions": {
    "Login": {
      "description": "Login Model",
      "required": ["username", "password"],
      "type": "object",
      "properties": {
        "username": {
          "description": "Gets or sets the username.",
          "type": "string"
        },
        "password": {
          "description": "Gets or sets the password.",
          "type": "string"
        }
      }
    },
    "ApiTokens": {
      "description": "An ApiToken, used for user authentification",
      "type": "object",
      "properties": {
        "access": {
          "$ref": "#/definitions/ApiToken",
          "description": "Gets or sets the access token."
        },
        "refresh": {
          "$ref": "#/definitions/ApiToken",
          "description": "Gets or sets the refresh token;"
        }
      }
    },
    "ApiToken": {
      "description": "The ApiToken Model",
      "type": "object",
      "properties": {
        "token": { "description": "Gets or sets the token.", "type": "string" },
        "expiration": {
          "format": "date-time",
          "description": "Gets or sets the expiration.",
          "type": "string"
        }
      }
    },
    "ModelStateEntry": {
      "type": "object",
      "properties": {
        "rawValue": { "type": "object" },
        "attemptedValue": { "type": "string" },
        "errors": {
          "type": "array",
          "items": { "$ref": "#/definitions/ModelError" },
          "readOnly": true
        },
        "validationState": {
          "enum": ["Unvalidated", "Invalid", "Valid", "Skipped"],
          "type": "string"
        },
        "isContainerNode": { "type": "boolean", "readOnly": true },
        "children": {
          "type": "array",
          "items": { "$ref": "#/definitions/ModelStateEntry" },
          "readOnly": true
        }
      }
    },
    "ModelError": {
      "type": "object",
      "properties": {
        "exception": { "type": "object", "readOnly": true },
        "errorMessage": { "type": "string", "readOnly": true }
      }
    },
    "Register": {
      "description": "Register Model",
      "required": ["userName", "password", "raplaConfig"],
      "type": "object",
      "properties": {
        "userName": {
          "description": "Gets or sets the name of the user.",
          "type": "string"
        },
        "password": {
          "description": "Gets or sets the password.",
          "type": "string"
        },
        "raplaConfig": {
          "$ref": "#/definitions/Rapla",
          "description": "Gets or sets the rapla configuration."
        }
      }
    },
    "Rapla": {
      "description": "The RaplaServer",
      "type": "object",
      "properties": {
        "server": {
          "description": "Gets the server.",
          "type": "string",
          "readOnly": true
        },
        "key": {
          "description": "Gets the key.",
          "type": "string",
          "readOnly": true
        }
      }
    },
    "IdentityError": {
      "type": "object",
      "properties": {
        "code": { "type": "string" },
        "description": { "type": "string" }
      }
    },
    "FileManagementItem": {
      "type": "object",
      "properties": {
        "name": { "type": "string" },
        "extension": { "type": "string" },
        "path": { "type": "string" },
        "size": { "format": "int64", "type": "integer" }
      }
    },
    "Event": {
      "description": "FullCalendar Event",
      "type": "object",
      "properties": {
        "editable": { "type": "boolean" },
        "title": {
          "description": "Gets the title.",
          "type": "string",
          "readOnly": true
        },
        "start": {
          "format": "date-time",
          "description": "Gets the start.",
          "type": "string",
          "readOnly": true
        },
        "end": {
          "format": "date-time",
          "description": "Gets the end.",
          "type": "string",
          "readOnly": true
        },
        "resources": {
          "description": "Gets or sets the resources.",
          "type": "array",
          "items": { "type": "string" }
        },
        "lecturers": {
          "description": "Gets or sets the lecturers.",
          "type": "array",
          "items": { "type": "string" }
        }
      }
    },
    "Day": {
      "description": "A Rapla Day",
      "type": "object",
      "properties": {
        "id": {
          "$ref": "#/definitions/DayId",
          "description": "Gets the identifier.",
          "readOnly": true
        },
        "lectures": {
          "description": "Gets the lectures.",
          "type": "array",
          "items": { "$ref": "#/definitions/Lecture" },
          "readOnly": true
        }
      }
    },
    "DayId": {
      "description": "The DayId",
      "type": "object",
      "properties": {
        "day": {
          "format": "int32",
          "description": "Gets the day number.",
          "type": "integer",
          "readOnly": true
        },
        "month": {
          "format": "int32",
          "description": "Gets the month number.",
          "type": "integer",
          "readOnly": true
        },
        "year": {
          "format": "int32",
          "description": "Gets the year number.",
          "type": "integer",
          "readOnly": true
        }
      }
    },
    "Lecture": {
      "description": "An Lecture",
      "type": "object",
      "properties": {
        "title": { "description": "Gets or sets the title.", "type": "string" },
        "start": {
          "$ref": "#/definitions/LectureTime",
          "description": "Gets or sets the start."
        },
        "end": {
          "$ref": "#/definitions/LectureTime",
          "description": "Gets or sets the end."
        },
        "lecturers": {
          "description": "Gets or sets the lecturer.",
          "type": "array",
          "items": { "type": "string" }
        },
        "resources": {
          "description": "Gets or sets a Array of Resources.",
          "type": "array",
          "items": { "type": "string" }
        }
      }
    },
    "LectureTime": {
      "description": "A LectureTime",
      "type": "object",
      "properties": {
        "hour": {
          "format": "int32",
          "description": "Gets or sets the hour.",
          "type": "integer"
        },
        "minute": {
          "format": "int32",
          "description": "Gets or sets the minute.",
          "type": "integer"
        }
      }
    }
  },
  "securityDefinitions": {
    "Bearer": {
      "name": "Authorization",
      "in": "header",
      "type": "apiKey",
      "description":
        "JWT Authorization header using the Bearer scheme. Example: \"Authorization: Bearer {token}\""
    }
  }
}
