{
  "Tokens": {
    "Key": "wLHG2FrwtvEKG1gaHl4jAji7FnkHMnPuvSoLW6PMmFRjknRDMrtsWYtqW38LFfNsBcFjAGRntLUh8fNiJVKENiDsUeF4W03KylJEsotO3f7boyaP87U1cWwPlYnG5gvwYuSYJreIxcZHOeAnvjEeOw8aNhDZgMMSN2gw8bK3VoNF9QEKgyzHfyc7YzBiODzV9JtaZn4bg6SX16I8FGUu90l1Yd59yf0p"
  }
}
